\relax 
\citation{hirsh1999origins}
\citation{ugur2015use}
\@writefile{lof}{\contentsline {figure}{\numberline {1}{\ignorespaces Experiments (a) and (b). (a) no sub-goal detection. (b) sub-goals are detected according to the robot primitives.}}{3}}
\newlabel{img:mot_scen_pc1}{{1}{3}}
\@writefile{toc}{\contentsline {section}{\numberline {1}Motivation}{3}}
\@writefile{toc}{\contentsline {subsection}{\numberline {1.1}Scenario}{3}}
\@writefile{lof}{\contentsline {figure}{\numberline {2}{\ignorespaces Experiments (c) and (d). (c) sub-goal detection is based on utterances. (d) sub-goal detection is based on both acoustic and movement cues.}}{4}}
\newlabel{img:mot_scen_pc2}{{2}{4}}
\@writefile{toc}{\contentsline {paragraph}{Experiment (a) - without cues}{4}}
\citation{kakouros2015automatic}
\citation{prosody}
\citation{prosody}
\citation{schillingmann2011using}
\citation{hirsh1999origins}
\@writefile{toc}{\contentsline {paragraph}{Experiment (b) - motion cues}{5}}
\@writefile{toc}{\contentsline {paragraph}{Experiment (c) - speech cues}{5}}
\@writefile{toc}{\contentsline {paragraph}{Experiment (d) - motion and speech cues}{5}}
\@writefile{toc}{\contentsline {subsection}{\numberline {1.2}Automatic information extraction}{5}}
\@writefile{toc}{\contentsline {section}{\numberline {2}Acoustic packaging system}{5}}
\citation{schillingmann2011using}
\@writefile{lof}{\contentsline {figure}{\numberline {3}{\ignorespaces Architecture of the system for acoustic packaging.}}{6}}
\newlabel{img:lit_ap_ap}{{3}{6}}
\citation{kakouros2015automatic}
\citation{schillingmann2011using}
\citation{kakouros2015automatic}
\@writefile{toc}{\contentsline {section}{\numberline {3}Sentence prominence implementation}{7}}
\@writefile{toc}{\contentsline {subsection}{\numberline {3.1}General work flow}{7}}
\@writefile{toc}{\contentsline {paragraph}{1. Segmentation}{7}}
\@writefile{toc}{\contentsline {paragraph}{2. Prominence detection}{7}}
\@writefile{toc}{\contentsline {paragraph}{3. Evaluation}{7}}
\@writefile{toc}{\contentsline {paragraph}{4. Testing}{7}}
\citation{kakouros2015automatic}
\citation{mermelstein1975automatic}
\citation{villing2006performance}
\@writefile{lof}{\contentsline {figure}{\numberline {4}{\ignorespaces CADSP algorithm: overview of the processing steps in the algorithm.}}{8}}
\newlabel{img:sp_cadsp}{{4}{8}}
\@writefile{toc}{\contentsline {subsection}{\numberline {3.2}CADSP}{8}}
\@writefile{toc}{\contentsline {subsubsection}{\numberline {3.2.1}Block B}{8}}
\citation{lieberman1960some}
\citation{ortega2011acoustic}
\citation{zahorian2008spectral}
\@writefile{lof}{\contentsline {figure}{\numberline {5}{\ignorespaces Estimation of the syllable structure. Syllabic nuclei correspond to envelope maxima located between the syllabic boundaries which are the local minima between the nuclei.}}{9}}
\newlabel{img:cadsp_blockb}{{5}{9}}
\@writefile{toc}{\contentsline {subsubsection}{\numberline {3.2.2}Block A}{9}}
\@writefile{toc}{\contentsline {paragraph}{1. Pre-processing}{9}}
\@writefile{toc}{\contentsline {paragraph}{2. Feature extraction}{9}}
\@writefile{toc}{\contentsline {paragraph}{3. Feature normalization}{10}}
\@writefile{toc}{\contentsline {paragraph}{4. Quantization}{10}}
\@writefile{toc}{\contentsline {paragraph}{5. n-gram training and probability emission}{10}}
\citation{bozkurt2009improving}
\citation{kehrein2002prosody}
\citation{bozkurt2009improving}
\citation{prosody}
\citation{kehrein2002prosody}
\@writefile{lof}{\contentsline {figure}{\numberline {6}{\ignorespaces CADSP with the utterance "There is a clean yellow cow and a cookie". Top panel: original signal waveform, red marks is the word perceived as most prominent and yellow marks are the syllabic nuclei. Bottom panel: prominence score for each word.}}{11}}
\newlabel{img:cadsp_s}{{6}{11}}
\@writefile{toc}{\contentsline {section}{\numberline {4}Module for emotional prosody}{11}}
\citation{kehrein2002prosody}
\citation{kehrein2002prosody}
\@writefile{lof}{\contentsline {figure}{\numberline {7}{\ignorespaces Augmenting the acoustic packaging system with a module for emotion detection. $X$ extends the weighting feature of the CADSP algorithm.}}{12}}
\@writefile{toc}{\contentsline {subsection}{\numberline {4.1}Structure}{12}}
\citation{kakouros2015automatic}
\citation{reynolds2015gaussian}
\@writefile{toc}{\contentsline {subsubsection}{\numberline {4.1.1}Weigthting prosodic features with emotion cues}{13}}
\@writefile{toc}{\contentsline {paragraph}{Explanation}{13}}
\@writefile{toc}{\contentsline {subsubsection}{\numberline {4.1.2}GMM}{13}}
\citation{prosody}
\citation{kehrein2002prosody}
\citation{mozziconacci2002prosody}
\@writefile{lof}{\contentsline {figure}{\numberline {8}{\ignorespaces Example of 1-dimensional GMM. The likelihood $X$ is reported in the vertical axe. The feature $\alpha $ is reported in the horizontal one. Each Gaussian distribution $g$ represents the likelihood to observe a certain emotional value given the prosodic feature vector $\mathaccentV {vec}17E{x}$.}}{14}}
\newlabel{img:e2}{{8}{14}}
\bibstyle{unsrt}
\bibdata{asr}
\bibcite{hirsh1999origins}{1}
\bibcite{ugur2015use}{2}
\bibcite{kakouros2015automatic}{3}
\bibcite{prosody}{4}
\bibcite{schillingmann2011using}{5}
\bibcite{mermelstein1975automatic}{6}
\bibcite{villing2006performance}{7}
\bibcite{lieberman1960some}{8}
\bibcite{ortega2011acoustic}{9}
\@writefile{toc}{\contentsline {section}{\numberline {5}Discussion}{15}}
\bibcite{zahorian2008spectral}{10}
\bibcite{bozkurt2009improving}{11}
\bibcite{kehrein2002prosody}{12}
\bibcite{reynolds2015gaussian}{13}
\bibcite{mozziconacci2002prosody}{14}
